Data Science for Biological, Medical and Health Research: Notes for 431
…
17.2 Exploratory Data Analysis for Paired Samples

We’ll begin by adjusting the data in two ways.

We’d like that first variable (pair) to be a factor rather than a character type in R, because we want to be able to summarize it more effectively. So we’ll make that change.

Also, we’d like to calculate the difference in lead content between the exposed and the control children in each pair, and we’ll save that within-pair difference in a variable called leaddiff. We’ll take leaddiff = exposed - control so that positive values indicate increased lead in the exposed child.

bloodlead <- bloodlead %>%
    mutate(pair = factor(pair),
           leaddiff = exposed - control)

bloodlead

# A tibble: 33 x 4
     pair exposed control leaddiff
   <fctr>   <int>   <int>    <int>
 1    P01      38      16       22
 2    P02      23      18        5
 3    P03      41      18       23
 4    P04      18      24       -6
 5    P05      37      19       18
 6    P06      36      11       25
 7    P07      23      10       13
 8    P08      62      15       47
 9    P09      31      16       15
10    P10      34      18       16
# ... with 23 more rows
…
For the purpose of estimating the difference between the exposed and control children, the summaries of the paired differences are what we’ll need.

In some settings, however, we might also look at a boxplot, or violin plot, or ridgeline plot that showed the distributions of exposed and control children separately. But we will run into trouble because one variable (blood lead content) is spread across multiple columns (control and exposed.) The solution is to gather up that variable so as to build a new, tidy tibble.

Because the data aren’t tidied here, so that we have one row for each subject and one column for each variable, we have to do some work to get them in that form for our usual plotting strategy to work well. For more on this approach (gathering and its opposite, spreading the data), visit the Tidy data chapter in Grolemund and Wickham (2017).

blead_tidied <- bloodlead %>%
    gather(control, exposed, key = "status", value = "leadcontent") %>%
    mutate(status = factor(status)) %>%
    select(-leaddiff)

blead_tidied

# A tibble: 66 x 3
     pair  status leadcontent
   <fctr>  <fctr>       <int>
 1    P01 control          16
 2    P02 control          18
 3    P03 control          18
 4    P04 control          24
 5    P05 control          19
 6    P06 control          11
 7    P07 control          10
 8    P08 control          15
 9    P09 control          16
10    P10 control          18
# ... with 56 more rows
…
