Data Science for Biological, Medical and Health Research: Notes for 431
…
We will eventually build a model to predict bmi using all of the other variables besides pid. So we’ll eventually have to account for the 9 people with missing values (one of whom has two missing values, as we see above.) What I’m going to do in this example is to first build a complete-case analysis on the 990 subjects without missing values and then, later, do multiple imputation to account for the 9 subjects with missing values (and their 10 actual missing values) sensibly.

I’ll put the “complete cases” data set of 990 subjects in emp_bmi_noNA.

emp_bmi_noNA <- emp_bmi %>% na.omit
emp_bmi_noNA

# A tibble: 990 x 8
     pid   bmi   age gender employed married                       alcohol
   <int> <dbl> <int> <fctr>    <int>   <int>                        <fctr>
 1    22  20.8    58   male        1       1                 heavy drinker
 2    41  21.4    76 female        0       1 normal drinker or non-drinker
 3    52  20.9    66 female        1       1                 heavy drinker
 4    82  23.7    67   male        1       1             alcohol dependent
 5   112  25.5    63 female        0       1                 heavy drinker
 6   181  20.5    51 female        1       1                 heavy drinker
 7   182  25.3    51   male        1       1             alcohol dependent
 8   411  20.8    66 female        1       1 normal drinker or non-drinker
 9   491  20.8    64 female        0       1 normal drinker or non-drinker
10   531  24.3    84 female        0       0 normal drinker or non-drinker
# ... with 980 more rows, and 1 more variables: education <fctr>
…
