Data Science for Biological, Medical and Health Research: Notes for 431
…
            Data Science for Biological, Medical and Health Research: Notes for 431

Chapter 21 Confidence Intervals from Two Independent Samples of Quantitative Data

Here, we’ll consider the problem of estimating a confidence interval to describe the difference in population means (or medians) based on a comparison of two samples of quantitative data, gathered using an independent samples design. Specifically, we’ll use as our example the randomized controlled trial of Ibuprofen in Sepsis patients, as described in Section @ref(Sepsis_RCT).

In that trial, 300 patients meeting specific criteria (including elevated temperature) for a diagnosis of sepsis were randomly assigned to either the Ibuprofen group (150 patients) and 150 to the Placebo group. Group information (our exposure) is contained in the treat variable. The key outcome of interest to us was temp_drop, the change in body temperature (in \(^{\circ}\)C) from baseline to 2 hours later, so that positive numbers indicate drops in temperature (a good outcome.)

sepsis

# A tibble: 300 x 6
      id     treat     race apache temp_0 temp_drop
   <chr>    <fctr>   <fctr>  <int>  <dbl>     <dbl>
 1  S002 Ibuprofen AfricanA     14   38.7       1.4
 2  S004 Ibuprofen    White      3   38.3       0.4
 3  S005   Placebo    White      5   38.6       0.0
 4  S006 Ibuprofen    White     13   38.2      -0.2
 5  S009 Ibuprofen    White     25   38.2       0.6
 6  S011 Ibuprofen    White     21   38.1      -0.4
 7  S012   Placebo    White     14   38.6      -0.1
 8  S014   Placebo    White     23   37.9       0.3
 9  S016   Placebo    White     16   38.1       0.1
10  S020 Ibuprofen    Other     20   39.2       1.5
# ... with 290 more rows
…
