Data Science for Biological, Medical and Health Research: Notes for 431
…
            Data Science for Biological, Medical and Health Research: Notes for 431

Chapter 28 Comparing 3 or more Population Means: Analysis of Variance

Recall the National Youth Fitness Survey, which we explored a small piece of in some detail back in Section 7. We’ll look at a different part of the same survey here - specifically the 280 children whose data are captured in the nyfs2 file.

nyfs2

# A tibble: 280 x 21
   subject.id    sex age.exam              race.eth english
        <int> <fctr>    <int>                <fctr>   <int>
 1      73228   Male        4 5 Other or Multi-Race       1
 2      72393   Male        4  2 Non-Hispanic Black       1
 3      73303   Male        3  2 Non-Hispanic Black       1
 4      72786   Male        5  1 Non-Hispanic White       1
 5      73048   Male        3  2 Non-Hispanic Black       1
 6      72556 Female        4  2 Non-Hispanic Black       1
 7      72580 Female        5  2 Non-Hispanic Black       1
 8      72532 Female        4      4 Other Hispanic       0
 9      73012   Male        4  1 Non-Hispanic White       1
10      72099   Male        6  1 Non-Hispanic White       1
# ... with 270 more rows, and 16 more variables: income.cat3 <fctr>,
#   income.detail <fctr>, inc.to.pov <dbl>, weight.kg <dbl>,
#   height.cm <dbl>, bmi <dbl>, bmi.group <int>, bmi.cat <fctr>,
#   arm.length <dbl>, arm.circ <dbl>, waist.circ <dbl>, calf.circ <dbl>,
#   calf.skinfold <dbl>, triceps.skinfold <dbl>, subscap.skinfold <dbl>,
#   GMQ <int>
…
