Data Science for Biological, Medical and Health Research: Notes for 431
…
nh_temp <- NHANES %>%
    filter(SurveyYr == "2011_12") %>%
    filter(Age >= 21 & Age < 65) %>%
    mutate(Sex = Gender, Race = Race3, SBP = BPSysAve, DBP = BPDiaAve) %>%
    select(ID, Sex, Age, Race, Education, BMI, SBP, DBP, Pulse, PhysActive, Smoke100, SleepTrouble, HealthGen)

set.seed(431002) 
# use set.seed to ensure that we all get the same random sample 

nh_adults <- sample_n(nh_temp, size = 500) 

nh_adults

# A tibble: 500 x 13
      ID    Sex   Age   Race    Education   BMI   SBP   DBP Pulse
   <int> <fctr> <int> <fctr>       <fctr> <dbl> <int> <int> <int>
 1 64427   male    37  White College Grad  36.5   111    72    56
 2 63788 female    40  White  High School  18.2   115    74   102
 3 66874 female    31  White Some College  27.2    95    52    98
 4 69734   male    26  White College Grad  20.6   137    75    74
 5 70409   male    44  White  High School  29.2   112    71    62
 6 68961 female    64  White College Grad  24.2   123    70    80
 7 62616 female    37  Asian    8th Grade  19.3   109    73    82
 8 70130   male    42  Black  High School  31.2   119    71    62
 9 71218   male    33  White College Grad  27.7   110    67    68
10 69181 female    37  White    8th Grade  25.0   114    74    82
# ... with 490 more rows, and 4 more variables: PhysActive <fctr>,
#   Smoke100 <fctr>, SleepTrouble <fctr>, HealthGen <fctr>
…
