Data Science for Biological, Medical and Health Research: Notes for 431
…
## next we'll turn that data frame into a more useful tibble
nyfs1 <- tbl_df(nyfs1)

## size of the data frame
dim(nyfs1)

[1] 1416    7

There are 1416 rows (subjects) and 7 columns (variables), by which I mean that there are 1416 kids in the nyfs1 data frame, and we have 7 pieces of information on each subject.

So, what do we have, exactly?

nyfs1 # this is a tibble, has some nice features in a print-out like this

# A tibble: 1,416 x 7
   subject.id    sex age.exam   bmi         bmi.cat waist.circ
        <int> <fctr>    <int> <dbl>          <fctr>      <dbl>
 1      71918 Female        8  22.3         4 Obese       71.9
 2      71919 Female       14  19.8 2 Normal weight       79.4
 3      71921   Male        3  15.2 2 Normal weight       46.8
 4      71922   Male       12  25.9         4 Obese       90.0
 5      71923   Male       12  22.5    3 Overweight       72.3
 6      71924 Female        8  14.4 2 Normal weight       56.1
 7      71925   Male        7  15.9 2 Normal weight       54.5
 8      71926   Male        8  17.0 2 Normal weight       59.7
 9      71927   Male        3  15.8 2 Normal weight       49.9
10      71928 Female        9  16.0 2 Normal weight       59.9
# ... with 1,406 more rows, and 1 more variables: triceps.skinfold <dbl>
…
