Data Science for Biological, Medical and Health Research: Notes for 431
…
# A tibble: 1 x 4
      n   Mean Median   Sum
  <int>  <dbl>  <dbl> <int>
1   500 42.102     42 21051

And again, the Mean is just the Sum (21051), divided by the number of non-missing values of Age (500), or 42.102.

The Median is the middle value when the data are sorted in order. When we have an odd number of values, this is sufficient. When we have an even number, as in this case, we take the mean of the two middle values. We could sort and list all 500 Ages, if we wanted to do so.

nh_adults %>% select(Age) %>% 
    arrange(Age)

# A tibble: 500 x 1
     Age
   <int>
 1    21
 2    21
 3    21
 4    21
 5    21
 6    21
 7    21
 8    21
 9    21
10    21
# ... with 490 more rows
…
While we eventually discuss the importance of imputation when dealing with missing data, this doesn’t apply to providing descriptive summaries of actual, observed values.

5.2.3 The Mode of a Quantitative Variable

One other less common measure of the center of a quantitative variable’s distribution is its most frequently observed value, referred to as the mode. This measure is only appropriate for discrete variables, be they quantitative or categorical. To find the mode, we usually tabulate the data, and then sort by the counts of the numbers of observations.

nh_adults %>%
    group_by(Age) %>%
    summarize(count = n()) %>%
    arrange(desc(count)) 

# A tibble: 44 x 2
     Age count
   <int> <int>
 1    56    19
 2    50    18
 3    28    16
 4    37    16
 5    42    16
 6    49    15
 7    24    13
 8    27    13
 9    39    13
10    46    13
# ... with 34 more rows
…
