Data Science for Biological, Medical and Health Research: Notes for 431
…
To begin, we’ll gather a random sample of 1,000 subjects participating in NHANES, and then identify several variables of interest about those subjects1. The motivation for this example came from a Figure in Baumer, Kaplan, and Horton (2017).

library(NHANES) # load the NHANES package/library of functions, data

set.seed(431001) 
# use set.seed to ensure that we all get the same random sample 
# of 1,000 NHANES subjects in our nh_data collection

nh_data <- sample_n(NHANES, size = 1000) %>%
    select(ID, Gender, Age, Height, Weight, BMI, Pulse, Race1, HealthGen, Diabetes)

nh_data

# A tibble: 1,000 x 10
      ID Gender   Age Height Weight   BMI Pulse    Race1 HealthGen
   <int> <fctr> <int>  <dbl>  <dbl> <dbl> <int>   <fctr>    <fctr>
 1 59640   male    54  175.7  129.0 41.79    74    White      Good
 2 59826 female    67  156.5   50.2 20.50    66    White     Vgood
 3 56340   male     9  128.3   23.3 14.15    86    Black        NA
 4 56747   male    33  194.2  105.1 27.87    68    White     Vgood
 5 51754 female    58  167.2  106.0 37.92    70    White        NA
 6 52712   male     6  108.6   16.9 14.33    NA    White        NA
 7 63908   male    55  168.6   90.6 31.90    62  Mexican     Vgood
 8 60865 female    25  155.5   55.0 22.75    58    Other     Vgood
 9 66642   male    41  177.9   89.3 28.20    72    White     Vgood
10 59880 female    45  163.2   98.3 36.91    80 Hispanic      Good
# ... with 990 more rows, and 1 more variables: Diabetes <fctr>
…
3.5 A Subset: Ages 21-79

Suppose we wanted to look at a subset of our sample - those observations (subjects) whose Age is at least 21 and at most 79. We’ll create that sample below, and also subset the variables to include nine of particular interest, and remove any observations with any missingness on any of the nine variables we’re including here.

nh_data_2179 <- nh_data %>%
    filter(Age > 20 & Age < 80) %>%
    select(ID, Gender, Age, Height, Weight, BMI, Pulse, Race1, HealthGen, Diabetes) %>%
    na.omit

nh_data_2179

# A tibble: 594 x 10
      ID Gender   Age Height Weight   BMI Pulse    Race1 HealthGen
   <int> <fctr> <int>  <dbl>  <dbl> <dbl> <int>   <fctr>    <fctr>
 1 59640   male    54  175.7  129.0 41.79    74    White      Good
 2 59826 female    67  156.5   50.2 20.50    66    White     Vgood
 3 56747   male    33  194.2  105.1 27.87    68    White     Vgood
 4 63908   male    55  168.6   90.6 31.90    62  Mexican     Vgood
 5 60865 female    25  155.5   55.0 22.75    58    Other     Vgood
 6 66642   male    41  177.9   89.3 28.20    72    White     Vgood
 7 59880 female    45  163.2   98.3 36.91    80 Hispanic      Good
 8 71784 female    24  161.1   50.2 19.30    72    White     Vgood
 9 67616   male    63  184.3   70.0 20.60    82    White     Vgood
10 55391 female    32  161.4   69.2 26.56   114    Other      Good
# ... with 584 more rows, and 1 more variables: Diabetes <fctr>
…
